POD;Anno;Gennaio ;Febbraio ;Marzo ;Aprile ;Maggio ;Giugno ;Luglio ;Agosto ;Settembre ;Ottobre ;Novembre ;Dicembre 
IT001E00005294;2016;11574,709;10395,01381;10740,96664;9020,293443;9894,874385;11641,67295;13352,75034;13833,03157;12385,49553;9829,294804;9922,09644;10642,7974
IT001E00005298;2016;3345,099193;3004,166436;3104,147052;2606,871266;2859,625785;3364,45182;3858,954414;3997,756031;3579,41708;2840,673239;2867,492978;3075,776073
