POD;Anno;Gennaio ;Febbraio ;Marzo ;Aprile ;Maggio ;Giugno ;Luglio ;Agosto ;Settembre ;Ottobre ;Novembre ;Dicembre 
IT001E00005294;2016;9307,00 ;9783,00 ;9460,00 ;9294,00 ;11714,00 ;13039,00 ;15008,00 ;15609,00 ;12445,00 ;11741,00 ;9032,00 ;8971,00 
IT001E00005298;2016;1853,00 ;2053,00 ;2249,00 ;2249,00 ;2708,00 ;2929,00 ;3456,00 ;3281,00 ;2885,00 ;2969,00 ;2275,00 ;2222,00 
